C:\Users\Nexsoft\_projects\summative1\summative3\src\main\java\summative\three\SummativeIntermediate.java
C:\Users\Nexsoft\_projects\summative1\summative3\src\main\java\summative\three\App.java
C:\Users\Nexsoft\_projects\summative1\summative3\src\main\java\summative\three\MockingClass.java
