Light TL-01 turns ORANGE at 13:00:05
Light TL-01 turns GREEN at 13:02:05
Pedestrians at light TL-02 can cross
Light TL-01 turns ORANGE at 13:02:10
Light TL-01 turns RED at 13:04:10
Light TL-02 turns ORANGE at 13:04:15
Light TL-02 turns GREEN at 13:06:15
Pedestrians at light TL-03 can cross
Light TL-02 turns ORANGE at 13:06:20
Light TL-02 turns RED at 13:08:20
Light TL-03 turns ORANGE at 13:08:25
Light TL-03 turns GREEN at 13:10:25
Pedestrians at light TL-04 can cross
Light TL-03 turns ORANGE at 13:10:30
Light TL-03 turns RED at 13:12:30
Light TL-04 turns ORANGE at 13:12:35
Light TL-04 turns GREEN at 13:14:35
Pedestrians at light TL-01 can cross
Light TL-04 turns ORANGE at 13:14:40
Light TL-04 turns RED at 13:16:40
Light TL-01 turns ORANGE at 13:16:45
Light TL-01 turns GREEN at 13:18:45
Pedestrians at light TL-02 can cross
Light TL-01 turns ORANGE at 13:18:50
Light TL-01 turns RED at 13:20:50
Light TL-02 turns ORANGE at 13:20:55
Light TL-02 turns GREEN at 13:22:55
Pedestrians at light TL-03 can cross
Light TL-02 turns ORANGE at 13:23:00
Light TL-02 turns RED at 13:25:00
Light TL-03 turns ORANGE at 13:25:05
Light TL-03 turns GREEN at 13:27:05
Pedestrians at light TL-04 can cross
Light TL-03 turns ORANGE at 13:27:10
Light TL-03 turns RED at 13:29:10
Light TL-04 turns ORANGE at 13:29:15
Light TL-04 turns GREEN at 13:31:15
Pedestrians at light TL-01 can cross
Light TL-04 turns ORANGE at 13:31:20
Light TL-04 turns RED at 13:33:20
Light TL-01 turns ORANGE at 13:33:25
Light TL-01 turns GREEN at 13:35:25
Pedestrians at light TL-02 can cross
Light TL-01 turns ORANGE at 13:35:30
Light TL-01 turns RED at 13:37:30
Light TL-02 turns ORANGE at 13:37:35
Light TL-02 turns GREEN at 13:39:35
Pedestrians at light TL-03 can cross
Light TL-02 turns ORANGE at 13:39:40
Light TL-02 turns RED at 13:41:40
Light TL-03 turns ORANGE at 13:41:45
Light TL-03 turns GREEN at 13:43:45
Pedestrians at light TL-04 can cross
Light TL-03 turns ORANGE at 13:43:50
Light TL-03 turns RED at 13:45:50
Light TL-04 turns ORANGE at 13:45:55
Light TL-04 turns GREEN at 13:47:55
Pedestrians at light TL-01 can cross
Light TL-04 turns ORANGE at 13:48:00
Light TL-04 turns RED at 13:50:00
Light TL-01 turns ORANGE at 13:50:05
Light TL-01 turns GREEN at 13:52:05
Pedestrians at light TL-02 can cross
Light TL-01 turns ORANGE at 13:52:10
Light TL-01 turns RED at 13:54:10
Light TL-02 turns ORANGE at 13:54:15
Light TL-02 turns GREEN at 13:56:15
Pedestrians at light TL-03 can cross
Light TL-02 turns ORANGE at 13:56:20
Light TL-02 turns RED at 13:58:20
Light TL-03 turns ORANGE at 13:58:25
Light TL-03 turns GREEN at 14:00:25
Pedestrians at light TL-04 can cross
Light TL-03 turns ORANGE at 14:00:30
Light TL-03 turns RED at 14:02:30
Light TL-04 turns ORANGE at 14:02:35
Light TL-04 turns GREEN at 14:04:35
Pedestrians at light TL-01 can cross
Light TL-04 turns ORANGE at 14:04:40
Light TL-04 turns RED at 14:06:40
Light TL-01 turns ORANGE at 14:06:45
Light TL-01 turns GREEN at 14:08:45
Pedestrians at light TL-02 can cross
Light TL-01 turns ORANGE at 14:08:50
Light TL-01 turns RED at 14:10:50
Light TL-02 turns ORANGE at 14:10:55
Light TL-02 turns GREEN at 14:12:55
Pedestrians at light TL-03 can cross
Light TL-02 turns ORANGE at 14:13:00
Light TL-02 turns RED at 14:15:00
Light TL-03 turns ORANGE at 14:15:05
Light TL-03 turns GREEN at 14:17:05
Pedestrians at light TL-04 can cross
Light TL-03 turns ORANGE at 14:17:10
Light TL-03 turns RED at 14:19:10
Light TL-04 turns ORANGE at 14:19:15
Light TL-04 turns GREEN at 14:21:15
Pedestrians at light TL-01 can cross
Light TL-04 turns ORANGE at 14:21:20
Light TL-04 turns RED at 14:23:20
Light TL-01 turns ORANGE at 14:23:25
Light TL-01 turns GREEN at 14:25:25
Pedestrians at light TL-02 can cross
Light TL-01 turns ORANGE at 14:25:30
Light TL-01 turns RED at 14:27:30
Light TL-02 turns ORANGE at 14:27:35
Light TL-02 turns GREEN at 14:29:35
Pedestrians at light TL-03 can cross
Light TL-02 turns ORANGE at 14:29:40
Light TL-02 turns RED at 14:31:40
Light TL-03 turns ORANGE at 14:31:45
Light TL-03 turns GREEN at 14:33:45
Pedestrians at light TL-04 can cross
Light TL-03 turns ORANGE at 14:33:50
Light TL-03 turns RED at 14:35:50
Light TL-04 turns ORANGE at 14:35:55
Light TL-04 turns GREEN at 14:37:55
Pedestrians at light TL-01 can cross
Light TL-04 turns ORANGE at 14:38:00
Light TL-04 turns RED at 14:40:00
Light TL-01 turns ORANGE at 14:40:05
Light TL-01 turns GREEN at 14:42:05
Pedestrians at light TL-02 can cross
Light TL-01 turns ORANGE at 14:42:10
Light TL-01 turns RED at 14:44:10
